{
    "id": "http://localhost:8484",
    "name": "Zehnder Ventilation system ComfoD 350 L",
    "description": "a Ventilation system like ComfoD 350L or ComfoAir 350 with RPI as WoT gateway",
    "tags": [
        "comfod350",
        "ventilationsystem"
    ],
    "customFields": {
        "hostname": "localhost",
        "port": 8484,
        "secure": false,
        "dataArraySize": 30
    },
    "links": {
        "product": {
            "link": "https://www.international.zehnder-systems.com/products-and-systems/comfosystems/zehnder-comfoair-350",
            "title": "ComfoD 350 / comfoair 350 with Raspberry as WoT gateway. "
        },
        "properties": {
            "link": "/properties",
            "title": "List of Properties",
            "resources": {
                "state": {
                    "name": "state",
                    "description": "switch level of the ventilation system.",
                    "values": {
                        "operationMode": {
                            "name": "operationMode",
                            "type": "enum",
                            "unit": "operations mode of the ventilation system",
                            "enum": {
                                "0": "L0 - switch off",
                                "1": "L1 - 1st ventilation fan level - 30% circulation",
                                "2": "L2 - 2nd ventilation fan level - 50% circulation",
                                "3": "L3 - 3rd ventilation fan level - fullspeed"
                            },
                            "customFields": {
 
                            }
                        },                        
                        "L1": {
                            "name": "L1",
                            "description": "GPIO must be FALSE/LOW if the ventilation system should have current on port L3.",
                            "type": "boolean",
                            "unit": "HIGH/LOW",
                            "customFields": {
                                "gpio": 14
                            }
                        },
                        "L2": {
                            "name": "L2",
                            "description": "GPIO must be FALSE/LOW if the ventilation system should have current on port L2.",
                            "type": "boolean",
                            "unit": "HIGH/LOW",
                            "customFields": {
                                "gpio": 15
                            }
                        },
                        "L3": {
                            "name": "L3",
                            "description": "GPIO must be FALSE/LOW if the ventilation system should have current on port L1.",
                            "type": "boolean",
                            "unit": "HIGH/LOW",
                            "customFields": {
                                "gpio": 18
                            }
                        }
                    },
                    "tags": [
                        "sensor",
                        "public"
                    ]
                }
            }
        },
        "actions": {
            "link": "/actions",
            "title": "Actions of this Web Thing",
            "resources": {
                "levelState": {
                    "name": "Change Level state",
                    "description": "Change the state (operation mode) of the ventilation system",
                    "values": {
                        "levelId": {
                            "type": "enum",
                            "unit": "operations mode of the ventilation system",
                            "enum": {
                                "0": "L0 - switch off",
                                "1": "L1 - 1st ventilation fan level - 30% circulation",
                                "2": "L2 - 2nd ventilation fan level - 50% circulation",
                                "3": "L3 - 3rd ventilation fan level - fullspeed"
                            },
                            "required": true
                        }
                    }
                }
            }
        },
        "help": {
            "link": "https://gitlab.com/weisslein/zehnder-comfo-rpi-controller",
            "title": "Documentation"
        },
        "ui": {
            "link": "/",
            "title": "User Interface"
        }
    }
}